{
  "edges" : 	[[[1,"C"],[2,"S"],"S"],
		[[2,"S"],[3,"C"],"S"],
		[[3,"C"],[4,"H"],"S"],
		[[4,"H"],[5,"S"],"S"],
		[[4,"H"],[7,"P"],"E"],
		[[5,"S"],[6,"C"],"S"],
		[[6,"C"],[7,"P"],"B"],
		[[7,"P"],[8,"H"],"S"],
		[[8,"H"],[9,"P"],"S"],
		[[8,"H"],[11,"C"],"S"],
		[[9,"P"],[10,"C"],"S"],
		[[11,"C"],[12,"P"],"S"]],
		
  "stim_set" :["start", "load", "loaded", "prepare", "done", "setup", "unload", "unloaded", "ready", "process", "processed", "end", "D", "N"],
  
  "cka_set" : ["IDLE", "LOAD", "PREP", "INIT", "PROC", "WAIT", "MOVE", "STBY", "SET", "WORK", "EMPTY", "FULL", "0", "1"],
  
  "constants" : ["PROCESS", "NULL"],
  
  "starting_agent" : [[1,"C"]]
}
