{
  "edges" : 	[[[1,"S"],[2,"H"],"B"],
  		[[2,"H"],[3,"S"],"S"],
  		[[3,"S"],[4,"P"],"B"],
  		[[2,"H"],[4,"P"],"E"],
  		[[4,"P"],[5,"H"],"S"],
  		[[5,"H"],[6,"P"],"S"]],
		
  "stim_set" :["start", "loaded", "unload", "unloaded", "ready", "process", "end", "D", "N"],
  
  "cka_set" : ["WAIT", "MOVE", "SET", "WORK", "EMPTY", "FULL", "0", "1"],
  
  "constants" : ["PROCESS", "NULL"],
  
  "starting_agent" : [[1,"S"]]
}
