begin AGENT where
	P := STBY + SET + WORK
end
begin NEXT_BEHAVIOUR where

	(start,STBY)      = STBY
	(start,SET)       = SET
	(start,WORK)      = WORK
	(load,STBY)       = STBY
	(load,SET)        = SET
	(load,WORK)       = WORK
	(loaded,STBY)     = STBY
	(loaded,SET)      = SET
	(loaded,WORK)     = WORK
	(prepare,STBY)       = STBY
	(prepare,SET)        = SET
	(prepare,WORK)       = WORK
	(prepared,STBY) = STBY
	(prepared,SET) = SET
	(prepared,WORK) = WORK
	(unload,STBY)     = STBY
	(unload,SET)      = SET
	(unload,WORK)     = WORK
	(unloaded,STBY)   = STBY
	(unloaded,SET)    = SET
	(unloaded,WORK)   = WORK
	(setup,STBY)      = SET
	(setup,SET)       = SET
	(setup,WORK)      = WORK
	(ready,STBY)      = STBY
	(ready,SET)       = SET
	(ready,WORK)      = WORK
	(process,STBY)    = STBY
	(process,SET)     = WORK
	(process,WORK)    = WORK
	(processed,STBY)  = STBY
	(processed,SET)   = SET
	(processed,WORK)  = WORK
	(reset,STBY) = STBY
	(reset,SET) = SET
	(reset,WORK) = STBY
	(doneH,STBY) = STBY
	(doneH,SET) = SET
	(doneH,WORK) = WORK
	(doneP,STBY) = STBY
	(doneP,SET) = SET
	(doneP,WORK) = WORK
	(end,STBY)      = STBY
	(end,SET)       = SET
	(end,WORK)      = WORK

end
begin NEXT_STIMULUS where

	(start,STBY)     = N
	(start,SET)      = N
	(start,WORK)     = N
	(load,STBY)      = N
	(load,SET)       = N
	(load,WORK)      = N
	(loaded,STBY)    = N
	(loaded,SET)     = N
	(loaded,WORK)    = N
	(prepare,STBY)      = N
	(prepare,SET)       = N
	(prepare,WORK)      = N
	(prepared,STBY) = N
	(prepared,SET) = N
	(prepared,WORK) = N
	(unload,STBY)    = N
	(unload,SET)     = N
	(unload,WORK)    = N
	(unloaded,STBY)  = N
	(unloaded,SET)   = N
	(unloaded,WORK)  = N
	(setup,STBY)     = ready
	(setup,SET)      = N
	(setup,WORK)     = N
	(ready,STBY)     = N
	(ready,SET)      = N
	(ready,WORK)     = N	
	(process,STBY)   = N
	(process,SET)    = processed
	(process,WORK)   = N
	(processed,STBY) = N
	(processed,SET)  = N
	(processed,WORK) = N
	(reset,STBY) = N
	(reset,SET) = N
	(reset,WORK) = doneP
	(doneH,STBY) = N
	(doneH,SET) = N
	(doneH,WORK) = N
	(doneP,STBY) = N
	(doneP,SET) = N
	(doneP,WORK) = N
	(end,STBY)     = N
	(end,SET)      = N
	(end,WORK)     = N

end
begin CONCRETE_BEHAVIOUR where
	STBY => [ ready := 0 ]
	SET  => [ ready := 1 ]	
	WORK => [ if  (ready = 1)  -> part := PROCESS
     		   | ~(ready = 1)  -> part := NULL
		      fi ]	
end